P : 12364280392709289256811428361725305690863898345873359319372625351473228431470523677095471486354544862414485369191001286838696326012684818673375499032858663
Gen : 5
Public Key : 11719994152706210548180904713736888602805545814945827743195237422521683106533572420311435672013749499254542384102721763426073877601542381364502154094325270
Private Key : 1086581017894385825744963627128042317751927671384419391327609109923399683580689211432689481609716674537517049740716541004063172700022326815058238840250697